{
  "genesis_time": "2023-08-24T10:29:41.251740299Z",
  "chain_id": "test-chain-s3QELT",
  "initial_height": "0",
  "consensus_params": {
    "block": {
      "max_bytes": "22020096",
      "max_gas": "-1",
      "time_iota_ms": "1000"
    },
    "evidence": {
      "max_age_num_blocks": "100000",
      "max_age_duration": "172800000000000",
      "max_bytes": "1048576"
    },
    "validator": {
      "pub_key_types": [
        "ed25519"
      ]
    },
    "version": {}
  },
  "validators": [
    {
      "address": "6C531F91C6F7CC591F2F1511DDED0DE32CF36555",
      "pub_key": {
        "type": "tendermint/PubKeyEd25519",
        "value": "RkFFesptXASyEuKB6m686aw4ejEXUvHRVxsJ5+7OHAw="
      },
      "power": "10",
      "name": ""
    }
  ],
  "app_hash": ""
}